…
year_summary
```

```
## # A tibble: 34 × 5
##     year avg_mpg prev_mpg mpg_change pct_change
##    <dbl>   <dbl>    <dbl>      <dbl>      <dbl>
##  1  1984    19.9     NA      NA          NA    
##  2  1985    19.8     19.9    -0.0735     -0.370
##  3  1986    19.6     19.8    -0.258      -1.30 
##  4  1987    19.2     19.6    -0.322      -1.65 
##  5  1988    19.3     19.2     0.0998      0.519
##  6  1989    19.1     19.3    -0.203      -1.05 
##  7  1990    19.0     19.1    -0.125      -0.653
##  8  1991    18.8     19.0    -0.175      -0.921
##  9  1992    18.9     18.8     0.0367      0.195
## 10  1993    19.1     18.9     0.242       1.28 
## # ℹ 24 more rows
```
…
