…
``` r
sentiment <- prof_rates %>%
  unnest_tokens(word, comments, token = "ngrams", n = 2) %>% # split comments into 2-word n-grams
  mutate(
    course = str_trunc(course, width = 15) # shorten course names so they fit better in plots/tables
  )
 

sentiment
```

```
## # A tibble: 818 × 2
##    course   word             
##    <chr>    <chr>            
##  1 MATH1900 he is            
##  2 MATH1900 is very          
##  3 MATH1900 very enthusiastic
##  4 MATH1900 enthusiastic to  
##  5 MATH1900 to help          
##  6 MATH1900 help students    
##  7 MATH1900 students his     
##  8 MATH1900 his course       
##  9 MATH1900 course content   
## 10 MATH1900 content is       
## # ℹ 808 more rows
```
…
